文本分析2
…
# 将主题 - 词分布转换为数据框
topic_terms <- tidy(lda_model, matrix = "beta")

# 查看每个主题的前10个关键词及其概率
top_terms <- topic_terms %>%
  group_by(topic) %>%
  top_n(10, beta) %>%
  ungroup() %>%
  arrange(topic, -beta)

print(top_terms)

## # A tibble: 50 × 3
##    topic term       beta
##    <int> <chr>     <dbl>
##  1     1 可能     0.0327
##  2     1 懂王     0.0327
##  3     1 候选人   0.0321
##  4     1 自导自演 0.0288
##  5     1 懂       0.0273
##  6     1 美国     0.0251
##  7     1 刺杀     0.0232
##  8     1 耳朵     0.0231
##  9     1 一个     0.0230
## 10     1 视频     0.0222
## # ℹ 40 more rows
…
